<?xml version="1.0" encoding="utf-8"?>
<!-- Generator: Adobe Illustrator 19.2.0, SVG Export Plug-In . SVG Version: 6.00 Build 0)  -->
<svg version="1.1" id="Capa_1" xmlns="http://www.w3.org/2000/svg" xmlns:xlink="http://www.w3.org/1999/xlink" x="0px" y="0px"
	 viewBox="0 0 282.9 30" style="enable-background:new 0 0 282.9 30;" xml:space="preserve">
<style type="text/css">
	.st0{fill:#931B1D;}
	.st1{fill:#F16622;}
	.st2{fill:#F7981D;}
	.st3{fill:#CB2026;}
	.st4{fill:#FFFFFF;}
	.st5{fill-rule:evenodd;clip-rule:evenodd;fill:#BE1622;}
	.st6{fill:#BE1622;}
	.st7{fill:#3C58BF;}
	.st8{fill:#293688;}
	.st9{fill:#FFBC00;}
	.st10{fill:#ED7C00;}
	.st11{fill:#051244;}
	.st12{fill:#139AD6;}
	.st13{fill:#263B80;}
	.st14{fill:#232C65;}
	.st15{fill:#26A6D1;}
	.st16{fill:#EA7924;}
	.st17{fill:#2D276D;}
	.st18{fill-rule:evenodd;clip-rule:evenodd;fill:#EFA616;}
	.st19{fill-rule:evenodd;clip-rule:evenodd;fill:#E20613;}
</style>
<g>
	<g>
		<path class="st5" d="M56.7,19.3h17.6c0,0,1.3,0,1.3,1.3c0,1.3,0,2.8,0,2.8s-0.1,1.3-1.3,1.3c-1.2,0-17.6,0-17.6,0V19.3z
			 M56.7,13.8c0,0,16.4,0,17.6,0c1.2,0,1.3-1.3,1.3-1.3s0-1.5,0-2.8c0-1.3-1.3-1.3-1.3-1.3H56.7V13.8z M81.6,21.9
			c0,4.5-3.6,8.1-8.1,8.1H51.3v-0.1V3.2h21.2l1.1,0c4.5,0,8.1,3.6,8.1,8.1c0,0,0.2,2.7-2,5.4C79.6,16.7,81.6,18.7,81.6,21.9z"/>
		<g>
			<path class="st6" d="M95.4,3.2h7.2L116.2,30h-6.3l-4-7.9H92.1l-4,7.9h-6.3L95.4,3.2z M103.1,16.6L99,8.5l-4.1,8.1H103.1z"/>
			<g>
				<path class="st5" d="M165.9,30c-7.4,0-13.4-6-13.4-13.4c0-7.4,6-13.4,13.4-13.4h8.6c7.4,0,13.4,6,13.4,13.4
					c0,7.4-6,13.4-13.4,13.4H165.9z M174.2,24c4.1,0,7.5-3.3,7.5-7.5c0-4.1-3.3-7.5-7.5-7.5h-8c-4.1,0-7.5,3.3-7.5,7.5
					c0,4.1,3.3,7.5,7.5,7.5H174.2z"/>
				<g>
					<path class="st5" d="M215.4,12.7c0,0.7-0.6,1.3-1.3,1.3h-17.6V8.6h17.6c0.7,0,1.3,0.6,1.3,1.3L215.4,12.7z M196.6,30V19.3h10.9
						l7,10.7h6.9l-7-10.7c7.2-1.1,7.2-8,7.2-8c0-4.5-3.6-8.1-8.1-8.1l-0.2,0h-22.1V30H196.6z"/>
				</g>
				<polygon class="st6" points="119,30 124.4,30 124.4,12.6 144.7,30 150.1,30 150.1,3.2 144.7,3.2 144.7,20.6 124.4,3.2 119,3.2 
									"/>
				<polygon class="st6" points="225,8.7 235.5,8.7 235.5,30 241.8,30 241.8,8.7 252.2,8.7 252.2,3.3 225,3.3 				"/>
				<polygon class="st6" points="255.7,3.2 282.9,3.2 282.9,8.6 261.1,8.6 261.1,13.9 278.7,13.9 278.7,19.3 261.1,19.3 261.1,24.6 
					282.9,24.6 282.9,30 255.7,30 				"/>
			</g>
		</g>
	</g>
	<g>
		<path class="st6" d="M20.1,14.6l4.2-11.4l0,11.4c0.6,0,1.2,0,1.8,0c11.4,0,20.7-3,20.7-7.2c0-4.1-9.3-7.5-20.7-7.5
			C14.7,0,5.4,3.3,5.4,7.5C5.4,10.8,11.6,13.7,20.1,14.6L20.1,14.6z"/>
		<path class="st6" d="M19.8,15.4C8.8,15.6,0,18.9,0,22.9C0,26.2,6.1,29,14.5,30L19.8,15.4L19.8,15.4z"/>
		<path class="st6" d="M24.3,15.4V30c9.7-0.6,17.1-3.4,17.1-7.1C41.4,19.2,34,16,24.3,15.4L24.3,15.4z"/>
	</g>
</g>
</svg>
