<?xml version="1.0" encoding="utf-8"?>
<!-- Generator: Adobe Illustrator 19.2.0, SVG Export Plug-In . SVG Version: 6.00 Build 0)  -->
<svg version="1.1" id="Capa_1" xmlns="http://www.w3.org/2000/svg" xmlns:xlink="http://www.w3.org/1999/xlink" x="0px" y="0px"
	 viewBox="0 0 65.1 30" style="enable-background:new 0 0 65.1 30;" xml:space="preserve">
<style type="text/css">
	.st0{fill:#931B1D;}
	.st1{fill:#F16622;}
	.st2{fill:#F7981D;}
	.st3{fill:#CB2026;}
	.st4{fill:#FFFFFF;}
	.st5{fill-rule:evenodd;clip-rule:evenodd;fill:#BE1622;}
	.st6{fill:#BE1622;}
	.st7{fill:#3C58BF;}
	.st8{fill:#293688;}
	.st9{fill:#FFBC00;}
	.st10{fill:#ED7C00;}
	.st11{fill:#051244;}
	.st12{fill:#139AD6;}
	.st13{fill:#263B80;}
	.st14{fill:#232C65;}
	.st15{fill:#26A6D1;}
	.st16{fill:#EA7924;}
	.st17{fill:#2D276D;}
	.st18{fill-rule:evenodd;clip-rule:evenodd;fill:#EFA616;}
	.st19{fill-rule:evenodd;clip-rule:evenodd;fill:#E20613;}
</style>
<g>
	<g>
		<path class="st18" d="M0,27.8c0,1.1,0.9,2,2,2h61.1c1.1,0,2-0.9,2-2v-0.9H0V27.8z"/>
		<path class="st18" d="M63.1-0.2H2c-1.1,0-2,0.9-2,2v0.9h65.1V1.9C65.1,0.7,64.2-0.2,63.1-0.2z"/>
	</g>
	<path class="st19" d="M55.2,9c-3,0-5.4,2.4-5.4,5.4c0,3,2.4,5.4,5.4,5.4c3,0,5.4-2.4,5.4-5.4C60.6,11.5,58.2,9,55.2,9L55.2,9z"/>
	<path class="st19" d="M10.6,9c-3,0-5.4,2.4-5.4,5.4c0,3,2.4,5.4,5.4,5.4c3,0,5.4-2.4,5.4-5.4C16,11.5,13.6,9,10.6,9L10.6,9z"/>
	<path class="st19" d="M54.8,4.3c-5-0.1-7.4,3.1-10.8,7.1l-3.2,3.7l5.1,6.1c1.2,1.9-1.1,3.7-2.5,2l-4.7-5.6L34,22.9
		c-1.5,1.7-3.8-0.2-2.5-2.1l5-5.8l-3.3-3.9l2.1-2.6l3.3,4l2.9-3.3c1.4-1.6,2.8-3.8,4.7-4.9H0v21.1h10.8c5,0,7.3-3,10.6-7l3.1-3.8
		l-5.2-6c-1.3-1.8,1-3.8,2.5-2.1l4.8,5.5l4.5-5.4c1.4-1.7,3.8,0.1,2.6,2l-4.9,5.9l3.4,3.8l-2.1,2.5L26.7,17l-2.8,3.4
		c-1.4,1.7-2.8,3.8-4.6,5h45.8V4.3H54.8L54.8,4.3z M19.2,14.4c0,4.7-3.8,8.5-8.5,8.5c-4.7,0-8.5-3.8-8.5-8.5c0-4.7,3.8-8.5,8.5-8.5
		C15.3,5.9,19.2,9.7,19.2,14.4L19.2,14.4z M55.2,23c-4.7,0-8.5-3.8-8.5-8.5c0-4.7,3.8-8.5,8.5-8.5c4.7,0,8.5,3.8,8.5,8.5
		C63.7,19.2,59.9,23,55.2,23L55.2,23z"/>
</g>
</svg>
